Elevador 1/simulation/qsim/ELEVADOR.msim.vcd
$comment
	File created using the following command:
		vcd file ELEVADOR.msim.vcd -direction
$end
$date
	Sun Dec 04 23:24:13 2022
$end
$version
	ModelSim Version 10.1d
$end
$timescale
	1ps
$end
$scope module ELEVADOR_vlg_vec_tst $end
$var reg 1 ! EQ $end
$var reg 1 " GT $end
$var reg 1 # LT $end
$var reg 3 $ ST [2:0] $end
$var wire 1 % NS [2] $end
$var wire 1 & NS [1] $end
$var wire 1 ' NS [0] $end
$var wire 1 ( openDoor $end
$var wire 1 ) statusElev [1] $end
$var wire 1 * statusElev [0] $end
$var wire 1 + sampler $end
$scope module i1 $end
$var wire 1 , gnd $end
$var wire 1 - vcc $end
$var wire 1 . unknown $end
$var tri1 1 / devclrn $end
$var tri1 1 0 devpor $end
$var tri1 1 1 devoe $end
$var wire 1 2 NS1~0_combout $end
$var wire 1 3 openDoor~output_o $end
$var wire 1 4 NS[0]~output_o $end
$var wire 1 5 NS[1]~output_o $end
$var wire 1 6 NS[2]~output_o $end
$var wire 1 7 statusElev[0]~output_o $end
$var wire 1 8 statusElev[1]~output_o $end
$var wire 1 9 EQ~input_o $end
$var wire 1 : GT~input_o $end
$var wire 1 ; LT~input_o $end
$var wire 1 < openDoor~0_combout $end
$var wire 1 = ST[0]~input_o $end
$var wire 1 > ST[1]~input_o $end
$var wire 1 ? openDoor~1_combout $end
$var wire 1 @ NS0~0_combout $end
$var wire 1 A NS0~1_combout $end
$var wire 1 B NS1~1_combout $end
$var wire 1 C NS1~2_combout $end
$var wire 1 D SE1~0_combout $end
$var wire 1 E NS1~3_combout $end
$var wire 1 F NS2~0_combout $end
$var wire 1 G NS2~1_combout $end
$var wire 1 H ST[2]~input_o $end
$var wire 1 I SE1~1_combout $end
$var wire 1 J SE2~0_combout $end
$var wire 1 K SE2~1_combout $end
$upscope $end
$upscope $end
$enddefinitions $end
#0
$dumpvars
0!
0"
0#
b0 $
0'
0&
0%
0(
0*
0)
x+
0,
1-
x.
1/
10
11
02
03
04
05
06
07
08
09
0:
0;
0<
0=
0>
0?
0@
0A
0B
0C
0D
0E
0F
0G
0H
0I
0J
0K
$end
#5000
1!
19
0+
1F
1<
1G
1?
16
13
1%
1(
#28000
b100 $
1H
1+
#30000
b110 $
b111 $
1=
1>
0+
0F
0G
0?
06
03
0%
0(
#40000
b11 $
0H
1+
#50000
0!
b10 $
09
0=
0+
0<
1J
#60000
1"
b0 $
1:
0>
1+
0J
#68000
b100 $
1H
0+
1B
1<
1C
1?
13
1(
1E
15
1&
#80000
b101 $
b1 $
1=
0H
1+
1D
0C
0B
0<
0?
03
0(
1I
0E
17
05
1*
0&
#90000
b11 $
1>
0+
0D
0I
07
0*
#100000
b10 $
0=
1+
#108000
b110 $
1H
0+
1B
1@
1<
1A
14
1'
#120000
b100 $
b0 $
0>
0H
1+
1C
0@
0B
0<
1?
0C
13
1(
1E
0A
0?
15
04
03
1&
0'
0(
0E
05
0&
#130000
b1 $
1=
0+
1D
1I
17
1*
#148000
b101 $
1H
1+
1B
1@
1<
0I
07
0*
1A
14
1'
#150000
0"
b111 $
b110 $
0:
0=
1>
0+
1J
0B
0<
0D
0A
04
0'
#160000
b10 $
0H
1+
0@
#180000
b0 $
b1 $
1=
0>
0+
0J
1D
#188000
b101 $
1H
1+
1@
#200000
b100 $
b0 $
0=
0H
0+
0D
0@
#210000
1#
b10 $
1;
1>
1+
1F
1J
12
1G
1C
16
1%
1E
15
1&
#228000
b110 $
1H
0+
1B
1<
1K
18
1)
#230000
b111 $
1=
1+
0J
0G
02
06
0%
0K
0C
08
0)
0E
05
0&
#240000
b101 $
b1 $
0>
0H
0+
0F
0B
0<
#250000
b0 $
0=
1+
#268000
b100 $
1H
0+
1B
1<
1C
1?
13
1(
1E
15
1&
#270000
b110 $
1>
1+
1J
1F
0C
0?
12
03
0(
1K
1G
0E
1C
18
16
05
1)
1%
0&
1E
15
1&
#280000
b111 $
b11 $
1=
0H
0+
0J
0B
0<
0G
0K
02
06
08
0%
0)
0C
0E
05
0&
#300000
0#
b1 $
b0 $
0;
0=
0>
1+
0F
1G
16
1%
0G
06
0%
#305000
1!
19
0+
1F
1<
1G
1?
16
13
1%
1(
#308000
b100 $
1H
1+
#320000
b0 $
0H
0+
#330000
b10 $
b11 $
1=
1>
1+
0F
0G
0?
06
03
0%
0(
#348000
b111 $
1H
0+
#350000
0!
b110 $
09
0=
1+
0<
1J
1@
#360000
1"
b100 $
b0 $
1:
0>
0H
0+
0J
0@
1A
14
1'
0A
04
0'
#380000
b1 $
1=
1+
1D
1I
17
1*
#388000
b101 $
1H
0+
1B
1@
1<
0I
07
0*
1A
14
1'
#390000
b111 $
1>
1+
0D
0@
0A
04
0'
#400000
b110 $
b10 $
0=
0H
0+
0B
0<
#420000
b0 $
0>
1+
#428000
b100 $
1H
0+
1B
1<
1C
1?
13
1(
1E
15
1&
#430000
b101 $
1=
1+
1D
0C
1@
0?
03
0(
0E
1A
05
14
0&
1'
#440000
b1 $
0H
0+
0B
0@
0<
1I
17
1*
0A
04
0'
#450000
0"
b11 $
b10 $
0:
0=
1>
1+
1J
0D
0I
07
0*
#468000
b110 $
1H
0+
1@
#480000
b100 $
b101 $
b1 $
1=
0>
0H
1+
0J
1D
0@
#500000
b0 $
0=
0+
0D
#508000
b100 $
1H
1+
#510000
1#
b110 $
1;
1>
0+
1F
1B
1<
1J
12
1G
1K
1C
16
18
1%
1)
1E
15
1&
#520000
b10 $
0H
1+
0B
0<
0K
08
0)
#530000
b11 $
1=
0+
0J
0G
02
06
0%
0C
0E
05
0&
#540000
b1 $
0>
1+
0F
#548000
b101 $
1H
0+
1B
1<
#550000
b100 $
0=
1+
1C
1?
13
1(
1E
15
1&
#560000
b0 $
0H
0+
0B
0<
0C
0?
03
0(
0E
05
0&
#570000
b10 $
1>
1+
1J
1F
12
1G
1C
16
1%
1E
15
1&
#580000
b11 $
1=
0+
0J
0G
02
06
0%
0C
0E
05
0&
#588000
b111 $
1H
1+
1B
1<
#600000
0#
b101 $
b100 $
b0 $
0;
0=
0>
0H
0+
0F
0B
0<
1C
1G
1?
0C
16
13
1%
1(
0G
0?
1E
06
03
15
0%
0(
1&
0E
05
0&
#605000
1!
19
1+
1F
1<
1G
1?
16
13
1%
1(
#628000
b100 $
1H
0+
#630000
b110 $
b111 $
1=
1>
1+
0F
0G
0?
06
03
0%
0(
#640000
b11 $
0H
0+
#650000
0!
b10 $
09
0=
1+
0<
1J
#660000
1"
b0 $
1:
0>
0+
0J
#668000
b100 $
1H
1+
1B
1<
1C
1?
13
1(
1E
15
1&
#680000
b101 $
b1 $
1=
0H
0+
1D
0C
0B
0<
0?
03
0(
1I
0E
17
05
1*
0&
#690000
b11 $
1>
1+
0D
0I
07
0*
#700000
b10 $
0=
0+
#708000
b110 $
1H
1+
1B
1@
1<
1A
14
1'
#720000
b100 $
b0 $
0>
0H
0+
1C
0@
0B
0<
1?
0C
13
1(
1E
0A
0?
15
04
03
1&
0'
0(
0E
05
0&
#730000
b1 $
1=
1+
1D
1I
17
1*
#748000
b101 $
1H
0+
1B
1@
1<
0I
07
0*
1A
14
1'
#750000
0"
b111 $
b110 $
0:
0=
1>
1+
1J
0B
0<
0D
0A
04
0'
#760000
b10 $
0H
0+
0@
#780000
b0 $
b1 $
1=
0>
1+
0J
1D
#788000
b101 $
1H
0+
1@
#800000
b100 $
b0 $
0=
0H
1+
0D
0@
#810000
1#
b10 $
1;
1>
0+
1F
1J
12
1G
1C
16
1%
1E
15
1&
#828000
b110 $
1H
1+
1B
1<
1K
18
1)
#830000
b111 $
1=
0+
0J
0G
02
06
0%
0K
0C
08
0)
0E
05
0&
#840000
b101 $
b1 $
0>
0H
1+
0F
0B
0<
#850000
b0 $
0=
0+
#868000
b100 $
1H
1+
1B
1<
1C
1?
13
1(
1E
15
1&
#870000
b110 $
1>
0+
1J
1F
0C
0?
12
03
0(
1K
1G
0E
1C
18
16
05
1)
1%
0&
1E
15
1&
#880000
b111 $
b11 $
1=
0H
1+
0J
0B
0<
0G
0K
02
06
08
0%
0)
0C
0E
05
0&
#900000
0#
b1 $
b0 $
0;
0=
0>
0+
0F
1G
16
1%
0G
06
0%
#905000
1!
19
1+
1F
1<
1G
1?
16
13
1%
1(
#908000
b100 $
1H
0+
#920000
b0 $
0H
1+
#930000
b10 $
b11 $
1=
1>
0+
0F
0G
0?
06
03
0%
0(
#948000
b111 $
1H
1+
#950000
0!
b110 $
09
0=
0+
0<
1J
1@
#960000
1"
b100 $
b0 $
1:
0>
0H
1+
0J
0@
1A
14
1'
0A
04
0'
#980000
b1 $
1=
0+
1D
1I
17
1*
#988000
b101 $
1H
1+
1B
1@
1<
0I
07
0*
1A
14
1'
#990000
b111 $
1>
0+
0D
0@
0A
04
0'
